{
  "cli": {
    "version": ">= 4.1.2"
  },
  "build": {
    "development": {
      "releaseChannel": "default",
      "developmentClient": true,
      "distribution": "internal",
      "ios": {
        "simulator": true
      },
      "env": {
        "EXPO_APP_API_URL": "https://5fc9346b2af77700165ae514.mockapi.io"
      }
    },
    "preview": {
      "distribution": "internal"
    },
    "production": {}
  },
  "submit": {
    "production": {}
  }
}
